…
Now I can change the format to POSIXct.


```r
activityData <- tbl_df(activityData)
activityData <- mutate(activityData, datetime = paste(date, times_2, sep = " "))
activityData$datetime <- as.POSIXct(activityData$datetime, format = "%Y-%m-%d %H%M")
activityData
```

```
## # A tibble: 17,568 x 5
##    steps       date interval times_2            datetime
##    <int>     <fctr>    <int>  <fctr>              <dttm>
##  1    NA 2012-10-01        0    0000 2012-10-01 00:00:00
##  2    NA 2012-10-01        5    0005 2012-10-01 00:05:00
##  3    NA 2012-10-01       10    0010 2012-10-01 00:10:00
##  4    NA 2012-10-01       15    0015 2012-10-01 00:15:00
##  5    NA 2012-10-01       20    0020 2012-10-01 00:20:00
##  6    NA 2012-10-01       25    0025 2012-10-01 00:25:00
##  7    NA 2012-10-01       30    0030 2012-10-01 00:30:00
##  8    NA 2012-10-01       35    0035 2012-10-01 00:35:00
##  9    NA 2012-10-01       40    0040 2012-10-01 00:40:00
## 10    NA 2012-10-01       45    0045 2012-10-01 00:45:00
## # ... with 17,558 more rows
```

### Question 3 - Total number of steps per day

I will now calculate the total number of steps that were taken each day, ignoring missing values.


```r
activityDataByDay <- group_by(activityData, date)
totalperday <- summarise(activityDataByDay, sum(steps, na.rm = TRUE))
names(totalperday) <- c("date", "total_steps")
totalperday
```

```
## # A tibble: 61 x 2
##          date total_steps
##        <fctr>       <int>
##  1 2012-10-01           0
##  2 2012-10-02         126
##  3 2012-10-03       11352
##  4 2012-10-04       12116
##  5 2012-10-05       13294
##  6 2012-10-06       15420
##  7 2012-10-07       11015
##  8 2012-10-08           0
##  9 2012-10-09       12811
## 10 2012-10-10        9900
## # ... with 51 more rows
```
…
```
## [1] 10395
```

### Question 6 - Average number of steps for each 5 minute interval


```r
averageInterval <- group_by(activityData, times_2)
averageInterval <- summarise(averageInterval, avg_steps = mean(steps, na.rm = TRUE))
averageInterval
```

```
## # A tibble: 288 x 2
##    times_2 avg_steps
##     <fctr>     <dbl>
##  1    0000 1.7169811
##  2    0005 0.3396226
##  3    0010 0.1320755
##  4    0015 0.1509434
##  5    0020 0.0754717
##  6    0025 2.0943396
##  7    0030 0.5283019
##  8    0035 0.8679245
##  9    0040 0.0000000
## 10    0045 1.4716981
## # ... with 278 more rows
```
…
```
## [1] 17568
```

```r
activityData <- tbl_df(activityData)
activityData <- arrange(activityData, datetime)
activityData
```

```
## # A tibble: 17,568 x 6
##    times_2 steps       date interval            datetime avg_steps
##     <fctr> <int>     <fctr>    <int>              <dttm>     <dbl>
##  1    0000    NA 2012-10-01        0 2012-10-01 00:00:00 1.7169811
##  2    0005    NA 2012-10-01        5 2012-10-01 00:05:00 0.3396226
##  3    0010    NA 2012-10-01       10 2012-10-01 00:10:00 0.1320755
##  4    0015    NA 2012-10-01       15 2012-10-01 00:15:00 0.1509434
##  5    0020    NA 2012-10-01       20 2012-10-01 00:20:00 0.0754717
##  6    0025    NA 2012-10-01       25 2012-10-01 00:25:00 2.0943396
##  7    0030    NA 2012-10-01       30 2012-10-01 00:30:00 0.5283019
##  8    0035    NA 2012-10-01       35 2012-10-01 00:35:00 0.8679245
##  9    0040    NA 2012-10-01       40 2012-10-01 00:40:00 0.0000000
## 10    0045    NA 2012-10-01       45 2012-10-01 00:45:00 1.4716981
## # ... with 17,558 more rows
```
…
```r
sum(activityData$dayType == "weekday")
```

```
## [1] 12960
```

```r
activityData
```

```
## # A tibble: 17,568 x 9
## # Groups:   date [61]
##    times_2 steps       date interval            datetime avg_steps
##     <fctr> <int>     <fctr>    <int>              <dttm>     <dbl>
##  1    0000    NA 2012-10-01        0 2012-10-01 00:00:00 1.7169811
##  2    0005    NA 2012-10-01        5 2012-10-01 00:05:00 0.3396226
##  3    0010    NA 2012-10-01       10 2012-10-01 00:10:00 0.1320755
##  4    0015    NA 2012-10-01       15 2012-10-01 00:15:00 0.1509434
##  5    0020    NA 2012-10-01       20 2012-10-01 00:20:00 0.0754717
##  6    0025    NA 2012-10-01       25 2012-10-01 00:25:00 2.0943396
##  7    0030    NA 2012-10-01       30 2012-10-01 00:30:00 0.5283019
##  8    0035    NA 2012-10-01       35 2012-10-01 00:35:00 0.8679245
##  9    0040    NA 2012-10-01       40 2012-10-01 00:40:00 0.0000000
## 10    0045    NA 2012-10-01       45 2012-10-01 00:45:00 1.4716981
## # ... with 17,558 more rows, and 3 more variables: stepsComplete <dbl>,
## #   dayOfWeek <chr>, dayType <fctr>
```
…
